{
	"info": {
		"_postman_id": "30d6eb0f-81ab-40b5-97f3-8d2607a200ac",
		"name": "Renaper + Coberturas - Río Negro - Hosp Viedma",
		"schema": "https://schema.getpostman.com/json/collection/v2.1.0/collection.json"
	},
	"item": [
		{
			"name": "Login",
			"request": {
				"method": "POST",
				"header": [
					{
						"key": "Content-Type",
						"value": "application/json"
					}
				],
				"body": {
					"mode": "raw",
					"raw": "{\n  \n  \"nombre\":\"HQgdGgMcFxMaCl4SEh8FDFwTGgpeDxYUAgdcCRwWAE8FGhUMHwA=\",\n  \"clave\":\"MjAXQj5DOUkhAwMQGUFHX0I=\",\n  \"codDominio\":\"DOMINIOSINAUTORIZACIONDEALTA\"\n}"
				},
				"url": {
					"raw": "https://federador.msal.gob.ar/masterfile-federacion-service/api/usuarios/aplicacion/login",
					"protocol": "https",
					"host": [
						"federador",
						"msal",
						"gob",
						"ar"
					],
					"path": [
						"masterfile-federacion-service",
						"api",
						"usuarios",
						"aplicacion",
						"login"
					]
				}
			},
			"response": []
		},
		{
			"name": "Consulta con el Renaper",
			"request": {
				"method": "GET",
				"header": [
					{
						"key": "token",
						"value": "eyJhbGciOiJIUzUxMiJ9.eyJleHAiOjE1MDk3MjQzNDMsInN1YiI6Im1pbmlzdGVyaW8ubWVuZG96YSIsImV4cGlyYXRpb25MYXBzZSI6MzAwMDAsImF1dGhvcml0aWVzIjpbInJlYWQiXSwiY3JlYXRlZCI6MTUwOTcyNDMxMzg4NiwidGltZVRvTGl2ZUxhcHNlIjoxMDAwMCwidXNlcklkIjozLCJpc3MiOiJob3NwaXRhbGl0YWxpYW5vLm9yZy5hciIsImlhdCI6MTUwOTcyNDMxM30.49izhAPBxB6wfPupdbhUv1LoguWDZShfvO6PkDyQhoOQw9hk-qRVvE5svs8mv6TyoEU9RqAnJ91tI_TQphskRg"
					},
					{
						"key": "codDominio",
						"value": "DOMINIOSINAUTORIZACIONDEALTA"
					}
				],
				"url": {
					"raw": "https://federador.msal.gob.ar/masterfile-federacion-service/api/personas/renaper?nroDocumento=28037737&idSexo=2",
					"protocol": "https",
					"host": [
						"federador",
						"msal",
						"gob",
						"ar"
					],
					"path": [
						"masterfile-federacion-service",
						"api",
						"personas",
						"renaper"
					],
					"query": [
						{
							"key": "nroDocumento",
							"value": "28037737"
						},
						{
							"key": "idSexo",
							"value": "2"
						}
					]
				}
			},
			"response": []
		},
		{
			"name": "Get de Obra Social",
			"request": {
				"method": "GET",
				"header": [
					{
						"key": "token",
						"value": "eyJhbGciOiJIUzUxMiJ9.eyJleHAiOjE1MDg4NzE5NDQsInN1YiI6Im1pbmlzdGVyaW8ubWVuZG96YSIsImV4cGlyYXRpb25MYXBzZSI6MzAwMDAsImF1dGhvcml0aWVzIjpbInJlYWQiXSwiY3JlYXRlZCI6MTUwODg3MTkxNDY3NiwidGltZVRvTGl2ZUxhcHNlIjoxMDAwMCwidXNlcklkIjozLCJpc3MiOiJob3NwaXRhbGl0YWxpYW5vLm9yZy5hciIsImlhdCI6MTUwODg3MTkxNH0.CPyzvYAd7PpYV9JbvI7naQtc4hRV7LkX9aYHKfJDq2aYUbOhLQDvH-AVrG2Yd84wy9wU484iLPp7tJNzUu4ZLw"
					},
					{
						"key": "codDominio",
						"value": "DOMINIOSINAUTORIZACIONDEALTA"
					}
				],
				"url": {
					"raw": "https://federador.msal.gob.ar/masterfile-federacion-service/api/personas/cobertura?nroDocumento=28037737&idSexo=2",
					"protocol": "https",
					"host": [
						"federador",
						"msal",
						"gob",
						"ar"
					],
					"path": [
						"masterfile-federacion-service",
						"api",
						"personas",
						"cobertura"
					],
					"query": [
						{
							"key": "nroDocumento",
							"value": "28037737"
						},
						{
							"key": "idSexo",
							"value": "2"
						}
					]
				}
			},
			"response": []
		}
	],
	"protocolProfileBehavior": {}
}